Unnamed: 0,Unnamed: 1,Unnamed: 2,Unnamed: 3,Unnamed: 4,Unnamed: 5,Unnamed: 6
,Micropipetas de  de 5 µL,1,MP-001,535820003.0,VWR,Laboratorio de Quimica Acuosa
,,,,,,
,Fecha,2023-09-12T00:00:00,,,,
,Temperatura,24,,,,
,Densidad,0.9973,,,,
,,,,,,
,Determinacion,Masa,Volumen,,,
,1,0.0058,5.81570239647047,,,
,2,0.0051,5.113807279655069,,,
,3,0.0054,5.414619472575955,,,
,4,0.0055,5.514890203549584,,,
,5,0.0053,5.314348741602326,,,
,6,0.0054,5.414619472575955,,,
,7,0.0052,5.214078010628697,,,
,8,0.0054,5.414619472575955,,,
,9,0.0052,5.214078010628697,,,
,10,0.0055,5.514890203549584,,,
,Promedio,,5.39456532638123,,,
,Desviacion estandar,,0.18919043682054745,,,
,Coeficiente variacion %,,3.5070561829206683,,,
,Error %,,-7.891306527624593,,,
,Valor nominal,,5,,,
